--temp-output:C:\techniqly\dotnetcorenunit\DotNetCoreNUnit\ExampleLib.Tests\obj\Debug\net451\
--out:C:\techniqly\dotnetcorenunit\DotNetCoreNUnit\ExampleLib.Tests\bin\Debug\net451\ExampleLib.Tests.dll
--define:DEBUG
--define:TRACE
--define:NET451
--suppress-warning:CS1701
--suppress-warning:CS1702
--suppress-warning:CS1705
--optimize:False
--output-name:ExampleLib.Tests
--file-version:1.0.0.0
--version:1.0.0.0
--informational-version:1.0.0
--target-framework:.NETFramework,Version=v4.5.1
--reference:C:\Users\farooq.mohmud\.nuget\packages\dotnet-test-nunit\3.4.0-beta-2\lib\net451\dotnet-test-nunit.exe
--reference:C:\Users\farooq.mohmud\.nuget\packages\FluentAssertions\4.14.0\lib\net45\FluentAssertions.Core.dll
--reference:C:\Users\farooq.mohmud\.nuget\packages\FluentAssertions\4.14.0\lib\net45\FluentAssertions.dll
--reference:C:\Users\farooq.mohmud\.nuget\packages\Microsoft.DiaSymReader\1.0.8\lib\net20\Microsoft.DiaSymReader.dll
--reference:C:\Users\farooq.mohmud\.nuget\packages\Microsoft.DotNet.InternalAbstractions\1.0.0\lib\net451\Microsoft.DotNet.InternalAbstractions.dll
--reference:C:\Users\farooq.mohmud\.nuget\packages\Microsoft.DotNet.ProjectModel\1.0.0-rc3-003121\lib\net451\Microsoft.DotNet.ProjectModel.dll
--reference:C:\Users\farooq.mohmud\.nuget\packages\Microsoft.Extensions.DependencyModel\1.0.0\lib\net451\Microsoft.Extensions.DependencyModel.dll
--reference:C:\Users\farooq.mohmud\.nuget\packages\Microsoft.Extensions.Testing.Abstractions\1.0.0-preview2-003121\lib\net451\Microsoft.Extensions.Testing.Abstractions.dll
--reference:C:\Users\farooq.mohmud\.nuget\packages\Newtonsoft.Json\9.0.1\lib\net45\Newtonsoft.Json.dll
--reference:C:\Users\farooq.mohmud\.nuget\packages\NuGet.Common\3.5.0-beta2-1484\lib\net45\NuGet.Common.dll
--reference:C:\Users\farooq.mohmud\.nuget\packages\NuGet.Frameworks\3.5.0-beta2-1484\lib\net45\NuGet.Frameworks.dll
--reference:C:\Users\farooq.mohmud\.nuget\packages\NuGet.Packaging\3.5.0-beta2-1484\lib\net45\NuGet.Packaging.dll
--reference:C:\Users\farooq.mohmud\.nuget\packages\NuGet.Packaging.Core\3.5.0-beta2-1484\lib\net45\NuGet.Packaging.Core.dll
--reference:C:\Users\farooq.mohmud\.nuget\packages\NuGet.Packaging.Core.Types\3.5.0-beta2-1484\lib\net45\NuGet.Packaging.Core.Types.dll
--reference:C:\Users\farooq.mohmud\.nuget\packages\NuGet.RuntimeModel\3.5.0-beta2-1484\lib\net45\NuGet.RuntimeModel.dll
--reference:C:\Users\farooq.mohmud\.nuget\packages\NuGet.Versioning\3.5.0-beta2-1484\lib\net45\NuGet.Versioning.dll
--reference:C:\Users\farooq.mohmud\.nuget\packages\NUnit\3.4.0\lib\net45\nunit.framework.dll
--reference:C:\Users\farooq.mohmud\.nuget\packages\NUnit.Portable.Agent\3.4.0-beta-2\lib\net45\NUnit.Portable.Agent.dll
--reference:C:\Program Files (x86)\Reference Assemblies\Microsoft\Framework\.NETFramework\v4.5.1\Facades\System.Collections.dll
--reference:C:\Program Files (x86)\Reference Assemblies\Microsoft\Framework\.NETFramework\v4.5.1\Facades\System.Collections.Concurrent.dll
--reference:C:\Users\farooq.mohmud\.nuget\packages\System.Collections.Immutable\1.2.0\lib\portable-net45+win8+wp8+wpa81\System.Collections.Immutable.dll
--reference:C:\Program Files (x86)\Reference Assemblies\Microsoft\Framework\.NETFramework\v4.5.1\Facades\System.Diagnostics.Debug.dll
--reference:C:\Program Files (x86)\Reference Assemblies\Microsoft\Framework\.NETFramework\v4.5.1\Facades\System.Diagnostics.Tools.dll
--reference:C:\Program Files (x86)\Reference Assemblies\Microsoft\Framework\.NETFramework\v4.5.1\Facades\System.Diagnostics.Tracing.dll
--reference:C:\Program Files (x86)\Reference Assemblies\Microsoft\Framework\.NETFramework\v4.5.1\Facades\System.Globalization.dll
--reference:C:\Program Files (x86)\Reference Assemblies\Microsoft\Framework\.NETFramework\v4.5.1\Facades\System.IO.dll
--reference:C:\Program Files (x86)\Reference Assemblies\Microsoft\Framework\.NETFramework\v4.5.1\System.IO.Compression.dll
--reference:C:\Program Files (x86)\Reference Assemblies\Microsoft\Framework\.NETFramework\v4.5.1\Facades\System.Linq.dll
--reference:C:\Program Files (x86)\Reference Assemblies\Microsoft\Framework\.NETFramework\v4.5.1\Facades\System.Linq.Expressions.dll
--reference:C:\Program Files (x86)\Reference Assemblies\Microsoft\Framework\.NETFramework\v4.5.1\System.Net.Http.dll
--reference:C:\Program Files (x86)\Reference Assemblies\Microsoft\Framework\.NETFramework\v4.5.1\Facades\System.Net.Primitives.dll
--reference:C:\Program Files (x86)\Reference Assemblies\Microsoft\Framework\.NETFramework\v4.5.1\Facades\System.ObjectModel.dll
--reference:C:\Program Files (x86)\Reference Assemblies\Microsoft\Framework\.NETFramework\v4.5.1\Facades\System.Reflection.dll
--reference:C:\Program Files (x86)\Reference Assemblies\Microsoft\Framework\.NETFramework\v4.5.1\Facades\System.Reflection.Extensions.dll
--reference:C:\Users\farooq.mohmud\.nuget\packages\System.Reflection.Metadata\1.3.0\lib\portable-net45+win8\System.Reflection.Metadata.dll
--reference:C:\Program Files (x86)\Reference Assemblies\Microsoft\Framework\.NETFramework\v4.5.1\Facades\System.Reflection.Primitives.dll
--reference:C:\Program Files (x86)\Reference Assemblies\Microsoft\Framework\.NETFramework\v4.5.1\Facades\System.Resources.ResourceManager.dll
--reference:C:\Program Files (x86)\Reference Assemblies\Microsoft\Framework\.NETFramework\v4.5.1\Facades\System.Runtime.dll
--reference:C:\Program Files (x86)\Reference Assemblies\Microsoft\Framework\.NETFramework\v4.5.1\Facades\System.Runtime.Extensions.dll
--reference:C:\Program Files (x86)\Reference Assemblies\Microsoft\Framework\.NETFramework\v4.5.1\Facades\System.Runtime.InteropServices.dll
--reference:C:\Users\farooq.mohmud\.nuget\packages\System.Runtime.InteropServices.RuntimeInformation\4.0.0\ref\netstandard1.1\System.Runtime.InteropServices.RuntimeInformation.dll
--reference:C:\Program Files (x86)\Reference Assemblies\Microsoft\Framework\.NETFramework\v4.5.1\Facades\System.Runtime.Numerics.dll
--reference:C:\Program Files (x86)\Reference Assemblies\Microsoft\Framework\.NETFramework\v4.5.1\Facades\System.Text.Encoding.dll
--reference:C:\Program Files (x86)\Reference Assemblies\Microsoft\Framework\.NETFramework\v4.5.1\Facades\System.Text.Encoding.Extensions.dll
--reference:C:\Program Files (x86)\Reference Assemblies\Microsoft\Framework\.NETFramework\v4.5.1\Facades\System.Text.RegularExpressions.dll
--reference:C:\Program Files (x86)\Reference Assemblies\Microsoft\Framework\.NETFramework\v4.5.1\Facades\System.Threading.dll
--reference:C:\Program Files (x86)\Reference Assemblies\Microsoft\Framework\.NETFramework\v4.5.1\Facades\System.Threading.Tasks.dll
--reference:C:\Program Files (x86)\Reference Assemblies\Microsoft\Framework\.NETFramework\v4.5.1\Facades\System.Threading.Timer.dll
--reference:C:\Program Files (x86)\Reference Assemblies\Microsoft\Framework\.NETFramework\v4.5.1\Facades\System.Xml.ReaderWriter.dll
--reference:C:\Program Files (x86)\Reference Assemblies\Microsoft\Framework\.NETFramework\v4.5.1\Facades\System.Xml.XDocument.dll
--reference:C:\techniqly\dotnetcorenunit\DotNetCoreNUnit\ExampleLib\bin\Debug\net451\ExampleLib.dll
--reference:C:\Program Files (x86)\Reference Assemblies\Microsoft\Framework\.NETFramework\v4.5.1\mscorlib.dll
--reference:C:\Program Files (x86)\Reference Assemblies\Microsoft\Framework\.NETFramework\v4.5.1\System.dll
--reference:C:\Program Files (x86)\Reference Assemblies\Microsoft\Framework\.NETFramework\v4.5.1\System.Core.dll
--reference:C:\Program Files (x86)\Reference Assemblies\Microsoft\Framework\.NETFramework\v4.5.1\Microsoft.CSharp.dll
--reference:C:\Program Files (x86)\Reference Assemblies\Microsoft\Framework\.NETFramework\v4.5.1\System.Xml.dll
--reference:C:\Program Files (x86)\Reference Assemblies\Microsoft\Framework\.NETFramework\v4.5.1\System.Xml.Linq.dll
--reference:C:\Program Files (x86)\Reference Assemblies\Microsoft\Framework\.NETFramework\v4.5.1\Facades\System.Runtime.Serialization.Primitives.dll
C:\techniqly\dotnetcorenunit\DotNetCoreNUnit\ExampleLib.Tests\CalculatorUnitTests.cs
C:\techniqly\dotnetcorenunit\DotNetCoreNUnit\ExampleLib.Tests\Properties\AssemblyInfo.cs
