{
  "version": "1.0.0-*",

  "dependencies": {
    "NUnit": "3.4.0",
    "dotnet-test-nunit": "3.4.0-beta-2",
    "ExampleLib": {
      "target": "project"
    },
    "FluentAssertions": "4.14.0"
  },
  "testRunner": "nunit", 

  "frameworks": {
    "netcoreapp1.0": {
      "imports": [
        "netcoreapp1.0",
        "portable-net45+win8"
      ],
      "dependencies": {
        "Microsoft.NETCore.App": {
          "version": "1.0.0-*",
          "type": "platform"
        }
      }
    },
    "net451": {} 
  }
}
